láadan,english
aálesh,parsley
ahana,chocolate
ahanamezh,cocoa
ana,food
anadal,meal
anawehe,grocery store
bal,bread
batha,fork
bom,oil
deheni,meat
deheni,melon
doyu,apple
ede,grain
ededal,pasta
edemezh,flour
edeni,bean
éeb,"juice, sap"
háami,thyme
hezh,lemon
hizh,lime
hob,butter
hom,nectar
homeyu,nectarine
hum,knife
ilihede,rice
ilimeda,lettuce
lal,milk
lel,seaweed
leyidalatham,blueberry
loyodalatham,blackberry
máa,egg
máan,salt
meda,vegetable
medalayun,carrot
meén,sugar
meénan,sweet
mud,mushroom
ni,cup
ódon,cheese
onelal,cream
óob,oven
rahana,junk food
rana,beverage
rana,"drink, beverage"
rilin,to drink
rin,plate
thesh,herb
thizh,pie
thuhal,candy
thuwebe,mead
thuyu,apricot
thuzh,cake
udemeda,potato
webe,beer
wéebe,ale
yem,sour
yide,to be hungry
yob,coffee
yod,to eat
yu,fruit
yumal,nut
yun,orange
zhebom,grease
zhu,tea
