láadan,english,singular-pronoun present-verb,singular-noun present-verb,description,
a,to love,love,loves,for an inanimate object,
sham,to love,love,loves,love for the child of one's body; presupposing neither love nor respect nor their absence,
aálá,to spray,spray,sprays,as in water,
áazh,to love,love,loves,love for one sexually desired at one time; but not now,
ab,to love,love,loves,love for one liked but not respected,
oham,to love,love,loves,love for that which is holy,
ábed,to farm,farm,farms,,
ad,to love,love,loves,love for one respected but not liked,
ada,to laugh,laugh,laughs,,
adadama,to tickle ,tickle ,tickles,,
adal,to sew,sew,sews,,
adama,to tickle ,tickle ,tickles,,
adoni,to land,land,lands,as a ship or plane,
am,to love,love,loves,love for one related by blood,
an,to know,know,knows,of people,
ashon,to love,love,loves,love for one not related by blood; but heart-kin,
aye,to love,love,loves,love which is an unwelcome burden,
azh,to love,love,loves,love for one sexually desired now,
éeme,to love,love,loves,love for one neither liked nor respected,
baneban,to forgive,forgive,forgives,,
bedi,to learn,learn,learns,,
bel,to take,take,takes,,
betheb,to mirror,mirror,mirrors,,
bithim,to meet,meet,meets,,
bithim,meet with,meet with,meets with,,
bodibod,to program ,program ,programs,a computer,
bom,to oil,oil,oils,household oil,
boóbin,to braid,braid,braids,,
buth,to gather,gather,gathers,not used with people,
dademadal,to embroider ,embroider ,embroiders,,
dam,to manifest,manifest,manifests,used like English 'seem',
dam,to show signs of some state,show signs of some state,shows signs of some state,used like English 'seem',
dam,to show signs of some emotion,show signs of some emotion,shows signs of some emotion,used like English 'seem',
dama,to touch,touch,touches,Active touching; feeling. I am feeling the texture of the yarn. (see láad oyanan; passive touch),
dama,to feel with the skin,feel with the skin,feels with the skin,Active touching; feeling. I am feeling the texture of the yarn. (see láad oyanan; passive touch),
dashelámála,to caress with teeth ,caress with teeth ,caresses with teeth ,,
dashelámála,to nibble,nibble,nibbles,,
dashobe,to bite ,bite ,bites,,
déedan,to interpret ,interpret ,interprets,,
den,to help,help,helps,,
dibithim,to greet ,greet ,greets,,
diharil,to predict,predict,predicts,,
diharil,to foretell ,foretell ,foretells,,
diheril,to reminisce,reminisce,reminisces,,
diheril,to recount past events ,recount past events ,recounts past events,,
dithal,to praise ,praise ,praises,,
dóhibeyóo,to fold,fold,folds,,
dóhin,to create,create,creates,,
dóhin,to enact ,enact ,enacts,,
dóho,to wrap ,wrap ,wraps,,
dólhorado,to dominate,dominate,dominates,with evil intent ,
dom,to remember,remember,remembers,,
donihum,to plow ,plow ,plows,,
dórado,to dominate,dominate,dominates,,
doth,to follow,follow,follows,,
dóthadelh,to enable another to persist in self-destructive behavior,enable another persist in self-destructive behavior,enables another persist in self-destructive behavior, (for instance substance abuse) by providing excuses or by helping that individual avoid the consequences of such behavior ,
dush,to have to,have to,has to,,
dush,to be obliged to,are obliged to,is obliged to,,
duth,to use,use,uses,,
dutha,to heal,heal,heals,,
duthahod,bandage,bandage,bandages,,
eb,to buy,buy,buys,,
eb,to sell,sell,sells,,
edeláad,to believe,believe,believes,,
edeláad,to believe in ,believe in,believes in,,
edemezh,to flour ,flour ,flours,,
edethi,to share ,share ,shares,,
éholhob,to threaten very maliciously ,threaten very maliciously ,threatens very maliciously ,,
éholob,to threaten ,threaten ,threatens,,
el,to make,make,makes,,
elash,to play,play,plays,,
en,to understand,understand,understands,,
eth,to be about,are about,is about,as in a book about birds,
éthe,to make clean,make clean,makes clean,,See also: háawithéthe; huhéthe; mudahéthe; onidahéthe; thóohéthe
habelid,to live in,live in,lives in,,
habelid,to inhabit ,inhabit ,inhabits,,
hahod,to be in a state of,are in a state of,is in a state of,,
hahoditha,to be in a state of linked empathically ,are in a state of linked empathically ,is in a state of linked empathically ,linked empathically with another,
héda,to drop,drop,drops,,
héda,to spill,spill,spills,,
héda,to let fall ,let fall ,lets fall ,,
héedá,to pick up,pick up,picks up,,
héedá,to lift up ,lift up ,lifts up ,,
héedan,to translate ,translate ,translates,,
héeya,to fear,fear,fears,,
heshedon,to rake ,rake ,rakes,,
hesho,to surpass,surpass,surpasses,,
hesho,to exceed,exceed,exceeds,,
hil,to pay attention to,pay attention to,pays attention to,,
il,to see,see,sees,Active seeing; which includes looking; watching; observing; and paying active attention to something visually. I am watching you. (see lAad oyinan; passive seeing),
il,to watch,watch,watches,,
il,to look at,look at,looks at,,
il,to pay attention to,pay attention to,pays attention to,,
il,to observe,observe,observes,,
láadom,to recognize ,recognize ,recognizes,,
ladinime,to interact,interact,interacts,,
lali,to rain ,rain ,rains,,
lalom,to sing,sing,sings,,
lámáhel,to sculpt,sculpt,sculpts,,
lámáhel,to carve ,carve ,carves,,
lámála,to caress,caress,caresses,,
lámála,to stroke,stroke,strokes,,
lamith,to count,count,counts,,
lemadama,to cuddle ,cuddle ,cuddles,,
lhobom,to rape,rape,rapes,,
lhu,to poison ,poison ,poisons,,
lila,to female-sexual-act,have sex,has sex,,
lilathun,massage,massages,massages,,
lob,to fill,fill,fills,,
lob,to fill up,fill up,fills up,,
lohil,to watch internally,watch internally,watches internally,,
loláad,to perceive internally,perceive internally,perceives internally,; to feel a mental state or emotion; perceive with the heart (metaphorically). Passive internal feeling. I feel sad. (see náril; active internal feeling),
loláad óoyanan,to sense,sense,senses,,
loláad óoyanan,to be aware of,are aware of,is aware of,,
lóoyo,to taste,taste,tastes,Active tasting. I am tasting the batter. (see láad óoyonan; passive taste),
lothel,to know,know,knows,not said of people,
lowitheláad,to feel another's feelings,feel another's feelings,feels another's feelings,to feel; as if directly; another's feelings (pain/joy/ anger/grief/surprise/ etc.); to be empathetic; without the separation implied in empathy ,
loyada,to yearn for,yearn for,yearns for,,
luth,to rock,rock,rocks,of babies,
ma,to hear,hear,hears,Active hearing. I am listening for the buzzer. (see láad oyunan; passive hear),
ma,to listen,listen,listens,Active hearing. I am listening for the buzzer. (see láad oyunan; passive hear),
ma,to listen to,listen to,listens to,Active hearing. I am listening for the buzzer. (see láad oyunan; passive hear),
madoni,to plant,plant,plants,,
mezhel,to grind ,grind ,grinds,,
mime,to ask,ask,asks,,
naya,to take care of,take care of,takes care of,,
naya,to nurture,nurture,nurtures,,
nayadithal,to encourage,encourage,encourages,,
néde,to want,want,wants,,
nime,to be willing,are willing,is willing,,
nin,to cause,cause,causes,,
nohadal,to hem ,hem ,hems,,
nori,to send,send,sends,,
obadom,to body-remember ,body-remember ,body-remembers,like remembering how to ride a bicycle,
obedi,to learn a skill,learn a skill,learns a skill,,
obedi,to body-learn ,body-learn ,body-learns,,
odámála,to caress with the lips,caress with the lips,caresses with the lips,,
odámála,to kiss ,kiss ,kisses,,
odithámála,to caress with the tongue ,caress with the tongue ,caresses with the tongue ,,
ol,to store,store,stores,,
olanin,to practice,practice,practices,ulanin=to study,
om,to teach,teach,teaches,,
onabel,to mask,mask,masks,,
óom,to mourn,mourn,mourns,,
osh,to weave,weave,weaves,,
oyada,to itch,itch,itches,,
radama,to non-touch,non-touch,non-touches,,
radama,to avoiding touch,avoid touch,avoids touch,,
radama,to actively refrain from touching ,actively refrain from touching ,actively refrains from touching ,,
radamalh,to non-touch with evil intent ,non-touch with evil intent ,non-touches with evil intent ,,
rahabelhid,to exile ,exile ,exiles,,
raheb,to hoard,hoard,hoards,,
rahéedan,to mistranslate ,mistranslate ,mistranslates,,
rahéelhedan,to deliberately mistranslate with evil intent ,deliberately mistranslate with evil intent ,deliberately mistranslates with evil intent ,,
rahen,to misunderstand,misunderstand,misunderstands,,
rahil,to non-attend,non-attend,non-attends,,
rahil,to ignore,ignore,ignores,,
rahil,to withhold attention ,withhold attention ,withholds attention ,,
rahilh,to non-attend with evil intent ,non-attend with evil intent ,non-attends with evil intent ,,
rahilh,to ignore with evil intent ,ignore with evil intent ,ignores with evil intent ,,
rahilh,to withhold attention with evil intent ,withhold attention with evil intent ,withholds attention with evil intent ,,
rahol,to waste,waste,wastes,,
rahol,to squander ,squander ,squanders,,
raláad,to non-perceive ,non-perceive ,non-perceives,,
ralh,to rape,rape,rapes,,
ralhewedeth,to obfuscate ,obfuscate ,obfuscates,,
ralith,to deliberately refrain from thinking about something,deliberately refrain from thinking about something,deliberately refrains from thinking about something,to deliberately refrain from thinking about something; to wall it off in one's mind by deliberate act ,
ralith,to wall something off in one’s mind,wall something off in one’s mind,walls something off in one’s mind,to deliberately refrain from thinking about something; to wall it off in one's mind by deliberate act ,
raména,to disregard,disregard,disregards,,
raména,to be callous,are callous,is callous,,
ramína,to disregard for no reason,disregard for no reason,disregards for no reason,,
ramína,to be callous for no reason,are callous for no reason,is callous for no reason,,
ramóna,to disregard for foolish reasons,disregard for foolish reasons,disregards for foolish reasons,,
ramóna,to be callous for foolish reasons,are callous for foolish reasons,is callous for foolish reasons,,
ramúna,to disregard for bad reasons,disregard for bad reasons,disregards for bad reasons,,
ramúna,to be callous for bad reasons,are callous for bad reasons,is callous for bad reasons,,
rarilh,to deliberately refrain from recording,deliberately refrain from recording,deliberately refrains from recording,for example; the failure throughout history to record the accomplishments of women ,
rashe,to torment ,torment ,torments,,
rashelh,to torture ,torture ,tortures,,
rayil,to be above ,are above ,is above ,,
redeb,to find,find,finds,,
ri,to record,record,records,,
ri,to keep records,keep records,keeps records,,
rilin,to drink,drink,drinks,rana=drink; noun,
riweth,to keep track of,keep track of,keeps track of,,
rumad,to hide,hide,hides,,
rumad,to cover,cover,covers,,
rumad,to put away,put away,puts away,,
rumadoni,to bury ,bury ,buries,,
she,to comfort,comfort,comforts,,
shu,to sniff,sniff,sniffs,Active smelling. I am smelling the perfume. (see láad oyonan passive smell),
shu,to smell,smell,smells,Active smelling. I am smelling the perfume. (see láad oyonan passive smell),
shub,to do,do,does,,
shulhe,to be wrong for ,are wrong for ,is wrong for ,,
shulhe,to not fit,don’t fit,doesn’t fit,,
thad,to be able,are able,is able,,
thahoma,to fist,fist,fists,,
thamehib,to squeeze,squeeze,squeezes,,
thamerili,to wring,wring,wrings,,
thamerili,to wring,wring,wrings,,
thamesho,to wrap ,wrap ,wraps,,
thazh,to inherit,inherit,inherits,,
thel,to get,get,gets,,
thel,to obtain,obtain,obtains,,
them,to need,need,needs,need for/of,
then,to break,break,breaks,,
thi,to have,have,has,,
thid,to thread,thread,threads,,
thid,to string,string,strings,,
thod,to write,write,writes,,
ulanin,to study ,study ,studies,,
ulhad,to betray ,betray,betrays,,
umeloláad,to visualize,visualize,visualizes,,
un,to lead somebody,lead somebody,leads somebody,,
un,to lead something,lead something,leads something,,
une,to wear,wear,wears,,
wéedan,to read ,read ,reads,,
wida,to carry,carry,carries,,
widom,to hold,hold,holds,,
wohosheni,to feel joined to,feel joined to,feels joined to,a word meaning the opposite of alienation; to feel joined to; part of someone or something without reservations or barriers ,
yan,to analyze,analyze,analyzes,,
yil,to be under,are under,is under,,
yil,to be below,are below,is below,,
yod,to eat,eat,eats,,
zhe,to be like,are like,is like,,
zhe,to be as,are as,is as,,
zhe,to be similar to,are similar to,is similar to,,
zhedam,to resemble,resemble,resembles,,
zhedam,to be reminiscent of ,are reminiscent of ,is reminiscent of ,,
