[
  {
    "láadan": "-tha",
    "english": "by reason of birth",
    "description": ""
  },
  {
    "láadan": "-thi",
    "english": "by reason of chance",
    "description": ""
  },
  {
    "láadan": "-the",
    "english": "for unknown or unacknowledged reason",
    "description": ""
  },
  {
    "láadan": "-thu",
    "english": "the false possessive",
    "description": "the false (“partitive”) possessive, as in “a dress of velvet”"
  },
  {
    "láadan": "-tho",
    "english": "other",
    "description": "purchase, gift, law, custom, et cetera"
  }
]
